Lab 14 Homework
…
Which county has the highest number of recorded shark attacks? Make
a map that only shows the attacks in this county. (hint: it may help
improve the map if you remove duplicate locations, i.e. multiple attacks
at the same location.)

#San Diego has the highest number of recorded shark attack.s

sharks %>%
  count(county, sort = TRUE)

## # A tibble: 21 × 2
##    county              n
##    <chr>           <int>
##  1 San Diego          24
##  2 San Mateo          19
##  3 Santa Barbara      19
##  4 Humboldt           18
##  5 Marin              16
##  6 Monterey           16
##  7 Santa Cruz         15
##  8 Sonoma             15
##  9 San Luis Obispo    14
## 10 Los Angeles         9
## # ℹ 11 more rows
…
