…
``` r
fisheries_clean %>% 
  mutate(across(c(period,
           continent,
           geo_region,
           country,
           scientific_name,
           common_name,
           taxonomic_code,
           status),as_factor))
```

```
## # A tibble: 1,055,015 × 9
##    period continent geo_region    country     scientific_name common_name       
##    <fct>  <fct>     <fct>         <fct>       <fct>           <fct>             
##  1 1950   Asia      Southern Asia Afghanistan Osteichthyes    Freshwater fishes…
##  2 1951   Asia      Southern Asia Afghanistan Osteichthyes    Freshwater fishes…
##  3 1952   Asia      Southern Asia Afghanistan Osteichthyes    Freshwater fishes…
##  4 1953   Asia      Southern Asia Afghanistan Osteichthyes    Freshwater fishes…
##  5 1954   Asia      Southern Asia Afghanistan Osteichthyes    Freshwater fishes…
##  6 1955   Asia      Southern Asia Afghanistan Osteichthyes    Freshwater fishes…
##  7 1956   Asia      Southern Asia Afghanistan Osteichthyes    Freshwater fishes…
##  8 1957   Asia      Southern Asia Afghanistan Osteichthyes    Freshwater fishes…
##  9 1958   Asia      Southern Asia Afghanistan Osteichthyes    Freshwater fishes…
## 10 1959   Asia      Southern Asia Afghanistan Osteichthyes    Freshwater fishes…
## # ℹ 1,055,005 more rows
## # ℹ 3 more variables: taxonomic_code <fct>, catch <dbl>, status <fct>
```
…
